{
  "shell_port": 52535,
  "iopub_port": 58309,
  "stdin_port": 54005,
  "control_port": 60861,
  "hb_port": 58959,
  "ip": "127.0.0.1",
  "key": "95e0171c-e2b794667c19d3f561e20c6e",
  "transport": "tcp",
  "signature_scheme": "hmac-sha256",
  "kernel_name": ""
}